[{
  "_id": {
    "$oid": "63572461c29920aab2a8b87d"
  },
  "nombre_producto": "PURINA",
  "categoria_producto": "COMIDA",
  "precio": 11000,
  "stock": 15,
  "codigo": 1301,
  "gramaje": [
    250,
    500,
    1000
  ],
  "tipo_animal": "PERRO",
  "descripcion": "COMIDA PARA PERRO PURINA",
  "__v": 0
},{
  "_id": {
    "$oid": "6358468deed63b5aa09c8296"
  },
  "nombre_producto": "DOGOURMET",
  "categoria_producto": "COMIDA",
  "precio": 12500,
  "stock": 18,
  "codigo": 1304,
  "gramaje": [
    250,
    500,
    1000
  ],
  "tipo_animal": "PERRO",
  "descripcion": "COMIDA PARA PERRO DOGOURMET",
  "__v": 0
}]